{
    "global": {
	"path": "results_100",
	"repetitions": 1,
	"iterations": 150,
	"evolutions": 500,
	"individuals": 100
    },
    "jde-death-penalty": {
	"problem": "problem.death_penalty(orig_prob)",
	"algorithm": "algorithm.jde(gen=500, memory=True)"
    },
    "cmaes-death-penalty": {
    	"iterations": 6000,
	"problem": "problem.death_penalty(orig_prob)",
	"algorithm": "algorithm.cmaes(gen=500, memory=True)"
    },
    "cmaes-death-penalty-old": {
        "iterations": 7000,
        "problem": "problem.death_penalty(orig_prob)",
        "algorithm": "algorithm.cmaes(gen=500, memory=True)"
    }
}
