{
    "global": {
    "path": "results_mbh",
    "repetitions": 1,
    "iterations":  999,
    "evolutions": 20,
    "individuals": 1
    },
    "mbh-snopt-1": {
    "problem": "problem.death_penalty(orig_prob)",
    "algorithm": "algorithm.mbh(algorithm.snopt(major_iter=100, opt_tol=1e-5),100,0.1)"
    },
    "mbh-snopt-2": {
    "problem": "problem.death_penalty(orig_prob)",
    "algorithm": "algorithm.mbh(algorithm.snopt(major_iter=100, opt_tol=1e-5),100,0.05)"
    },
    "mbh-snopt-3": {
    "problem": "problem.death_penalty(orig_prob)",
    "algorithm": "algorithm.mbh(algorithm.snopt(major_iter=200, opt_tol=1e-5),100,0.05)"
    },
    "mbh-snopt-4": {
    "problem": "problem.death_penalty(orig_prob)",
    "algorithm": "algorithm.mbh(algorithm.snopt(major_iter=50, opt_tol=1e-5),100,0.05)"
    }
}